module gitlab.com/jigar_xyz/my-awesome-project

go 1.15

require (
	github.com/99designs/gqlgen v0.13.0
	github.com/golang-migrate/migrate/v4 v4.13.0
	github.com/google/uuid v1.1.2
	github.com/jackc/pgx/v4 v4.9.0
	github.com/vektah/gqlparser/v2 v2.1.0
)
